^C:\USERS\USER\DOCUMENTS\VISUAL STUDIO 2013\PROJECTS\ITAIGELLERHW17\ITAIGELLERHW17\TEST.CPP
/c /IC:\Users\User\Downloads\cryptopp563 /ZI /nologo /W3 /WX- /sdl /Od /Oy- /D _MBCS /Gm /EHsc /RTC1 /MTd /GS /fp:precise /Zc:wchar_t /Zc:forScope /Fo"DEBUG\\" /Fd"DEBUG\VC120.PDB" /Gd /TP /analyze- C:\USERS\USER\DOCUMENTS\VISUAL STUDIO 2013\PROJECTS\ITAIGELLERHW17\ITAIGELLERHW17\TEST.CPP
^C:\USERS\USER\DOCUMENTS\VISUAL STUDIO 2013\PROJECTS\ITAIGELLERHW17\ITAIGELLERHW17\CLIENT.CPP
/c /IC:\Users\User\Downloads\cryptopp563 /ZI /nologo /W3 /WX- /sdl /Od /Oy- /D _MBCS /Gm /EHsc /RTC1 /MTd /GS /fp:precise /Zc:wchar_t /Zc:forScope /Fo"DEBUG\\" /Fd"DEBUG\VC120.PDB" /Gd /TP /analyze- C:\USERS\USER\DOCUMENTS\VISUAL STUDIO 2013\PROJECTS\ITAIGELLERHW17\ITAIGELLERHW17\CLIENT.CPP
^C:\USERS\USER\DOCUMENTS\VISUAL STUDIO 2013\PROJECTS\ITAIGELLERHW17\ITAIGELLERHW17\CRYPTODEVICE.CPP
/c /IC:\Users\User\Downloads\cryptopp563 /ZI /nologo /W3 /WX- /sdl /Od /Oy- /D _MBCS /Gm /EHsc /RTC1 /MTd /GS /fp:precise /Zc:wchar_t /Zc:forScope /Fo"DEBUG\\" /Fd"DEBUG\VC120.PDB" /Gd /TP /analyze- C:\USERS\USER\DOCUMENTS\VISUAL STUDIO 2013\PROJECTS\ITAIGELLERHW17\ITAIGELLERHW17\CRYPTODEVICE.CPP
